REGISTER_MUTATOR(vore, true)
{
	MUTATOR_ONADD
	{
		VoreMain_OnAdd();
	}

	MUTATOR_ONREMOVE
	{
		VoreMain_OnRemove();
	}
}

MUTATOR_HOOKFUNCTION(vore, ConfigureDialogs)
{
	entity me = M_ARGV(0, entity);
	VoreMain_ConfigureDialogs(me);
	return false;
}
